2021-01-22T13:10:49.257056: List all files took 6 ms to execute.
2021-01-22T13:12:10.673289: List all files took 1 ms to execute.
2021-01-22T13:12:28.599828: List all files took 2 ms to execute.
2021-01-22T13:12:29.488456: List all files took 2 ms to execute.
2021-01-22T13:21:16.213691: Show .txt file details took 54 ms to execute.
2021-01-22T13:21:29.755061: Search .txt file for 'sleep' took 358 ms to execute.
2021-01-22T13:21:45.854111: List files with extension 'aaa' took 1 ms to execute.
2021-01-22T13:21:56.886210: List files with extension 'jpeg' took 2 ms to execute.
2021-01-22T13:31:05.214147: Search .txt file for 'asleep' took 516 ms to execute.
2021-01-22T13:31:13.069033: Search .txt file for 'sleep' took 411 ms to execute.
2021-01-22T13:31:17.397001: Search .txt file for 'sleep' took 148 ms to execute.
2021-01-22T13:40:42.764626: Search .txt file for 'sleep' took 394 ms to execute.
2021-01-22T13:43:51.289662: Search .txt file for 'sleep' took 405 ms to execute.
2021-01-22T13:44:42.197475: Search .txt file for 'sleep' took 523 ms to execute.
2021-01-22T14:23:51.897777: Search .txt file for 'sleep' took 383 ms to execute.
2021-01-22T14:26:45.298904: Search .txt file for 'sleep' took 226 ms to execute.
2021-01-22T14:28:39.177821: Search .txt file for 'sleep' took 233 ms to execute.
2021-01-22T14:29:44.374902: Search .txt file for 'sleep' took 244 ms to execute.
2021-01-22T14:34:02.548139: Search .txt file for 'sleep' took 253 ms to execute.
2021-01-22T14:34:57.861806: Search .txt file for 'sleep' took 223 ms to execute.
2021-01-22T14:38:51.104327: Search .txt file for 'sleep' took 229 ms to execute.
2021-01-22T14:44:53.702676: Search .txt file for 'sleep' took 394 ms to execute.
2021-01-22T14:51:12.975305: Show .txt file details took 34 ms to execute.
2021-01-22T15:49:48.440025: Search .txt file for 'sleep' took 173 ms to execute.
2021-01-22T15:50:55.534438: Search .txt file for 'sleep' took 374 ms to execute.
2021-01-22T15:51:31.084982: Search .txt file for 'the' took 333 ms to execute.
2021-01-22T15:57:06.873666: Search .txt file for 'sleep' took 160 ms to execute.
2021-01-22T15:59:12.048835: Search .txt file for 'sleep' took 405 ms to execute.
2021-01-22T15:59:15.636851: Search .txt file for 'the' took 215 ms to execute.
2021-01-22T16:00:27.321024: Search .txt file for 'sleep' took 166 ms to execute.
2021-01-22T16:00:33.156341: Search .txt file for 'the' took 140 ms to execute.
2021-01-22T16:02:00.059177: Search .txt file for 'sleep' took 185 ms to execute.
2021-01-22T16:04:43.151030: Search .txt file for 'asleep' took 112 ms to execute.
2021-01-22T16:04:58.756611: Search .txt file for 'uneasy' took 117 ms to execute.
2021-01-22T16:05:28.182372: Search .txt file for 'easy' took 54 ms to execute.
2021-01-22T16:23:54.217502: Search .txt file for 'sleep' took 157 ms to execute.
2021-01-22T16:24:00.329971: Search .txt file for 'the' took 265 ms to execute.
2021-01-22T16:26:26.373813: Search .txt file for 'the' took 106 ms to execute.
2021-01-22T16:26:30.095973: Search .txt file for 'the' took 96 ms to execute.
2021-01-22T16:26:34.558467: Search .txt file for 'the' took 57 ms to execute.
2021-01-22T17:21:36.186682: Search .txt file for 'sleep' took 226 ms to execute.
2021-01-22T17:21:41.513439: Search .txt file for 'the' took 219 ms to execute.
2021-01-22T17:23:04.853810: Search .txt file for 'sleep' took 195 ms to execute.
2021-01-22T17:23:08.041618: Search .txt file for 'the' took 259 ms to execute.
2021-01-22T22:31:21.089735: List all files took 9 ms to execute.
